{
	"info": {
		"_postman_id": "0fee993c-b15e-466c-b440-b27cc8d7a7ce",
		"name": "[ACCOUNT]",
		"schema": "https://schema.getpostman.com/json/collection/v2.1.0/collection.json"
	},
	"item": [
		{
			"name": "User",
			"item": [
				{
					"name": "Security Signin",
					"event": [
						{
							"listen": "test",
							"script": {
								"id": "a55748a9-968d-4b8f-a346-063e9217dcf2",
								"exec": [
									"var _token = pm.response.json().data[\"Access-Token\"];",
									"",
									"pm.environment.set(\"token\", _token);"
								],
								"type": "text/javascript"
							}
						}
					],
					"request": {
						"auth": {
							"type": "basic",
							"basic": [
								{
									"key": "password",
									"value": "system",
									"type": "string"
								},
								{
									"key": "username",
									"value": "system",
									"type": "string"
								}
							]
						},
						"method": "POST",
						"header": [
							{
								"key": "Content-Type",
								"value": "application/json"
							}
						],
						"body": {
							"mode": "raw",
							"raw": "{\n    \"scope\": [\n        \"betadm\"\n    ],\n    \"domain\": \"bl686v6cltnvaus91jp0\"\n}"
						},
						"url": {
							"raw": "{{host}}/account/user/signin",
							"host": [
								"{{host}}"
							],
							"path": [
								"account",
								"user",
								"signin"
							]
						}
					},
					"response": []
				},
				{
					"name": "User",
					"event": [
						{
							"listen": "test",
							"script": {
								"id": "ca155fa1-5d76-48ab-b020-d9ae3c1b2aef",
								"exec": [
									""
								],
								"type": "text/javascript"
							}
						}
					],
					"request": {
						"auth": {
							"type": "noauth"
						},
						"method": "GET",
						"header": [
							{
								"key": "Content-Type",
								"value": "application/json"
							},
							{
								"key": "Access-Token",
								"value": "{{token}}"
							}
						],
						"url": {
							"raw": "{{host}}/account/user/1",
							"host": [
								"{{host}}"
							],
							"path": [
								"account",
								"user",
								"1"
							]
						}
					},
					"response": []
				},
				{
					"name": "User",
					"event": [
						{
							"listen": "test",
							"script": {
								"id": "ca155fa1-5d76-48ab-b020-d9ae3c1b2aef",
								"exec": [
									""
								],
								"type": "text/javascript"
							}
						}
					],
					"request": {
						"auth": {
							"type": "noauth"
						},
						"method": "DELETE",
						"header": [
							{
								"key": "Content-Type",
								"value": "application/json"
							},
							{
								"key": "Access-Token",
								"value": "{{token}}"
							}
						],
						"url": {
							"raw": "{{host}}/account/user/19",
							"host": [
								"{{host}}"
							],
							"path": [
								"account",
								"user",
								"19"
							]
						}
					},
					"response": []
				},
				{
					"name": "User List",
					"event": [
						{
							"listen": "test",
							"script": {
								"id": "ca155fa1-5d76-48ab-b020-d9ae3c1b2aef",
								"exec": [
									""
								],
								"type": "text/javascript"
							}
						}
					],
					"request": {
						"auth": {
							"type": "noauth"
						},
						"method": "GET",
						"header": [
							{
								"key": "Content-Type",
								"value": "application/json"
							},
							{
								"key": "Access-Token",
								"value": "{{token}}"
							}
						],
						"url": {
							"raw": "{{host}}/account/user/list?filter={\"id\": {\"$eq\": 1}}",
							"host": [
								"{{host}}"
							],
							"path": [
								"account",
								"user",
								"list"
							],
							"query": [
								{
									"key": "filter",
									"value": "{\"id\": {\"$eq\": 1}}"
								}
							]
						}
					},
					"response": []
				},
				{
					"name": "User Me",
					"event": [
						{
							"listen": "test",
							"script": {
								"id": "ca155fa1-5d76-48ab-b020-d9ae3c1b2aef",
								"exec": [
									""
								],
								"type": "text/javascript"
							}
						}
					],
					"request": {
						"auth": {
							"type": "noauth"
						},
						"method": "GET",
						"header": [
							{
								"key": "Content-Type",
								"value": "application/json"
							},
							{
								"key": "Access-Token",
								"value": "{{token}}"
							}
						],
						"url": {
							"raw": "{{host}}/account/user/me",
							"host": [
								"{{host}}"
							],
							"path": [
								"account",
								"user",
								"me"
							]
						}
					},
					"response": []
				},
				{
					"name": "User Decode Token",
					"event": [
						{
							"listen": "test",
							"script": {
								"id": "ca155fa1-5d76-48ab-b020-d9ae3c1b2aef",
								"exec": [
									""
								],
								"type": "text/javascript"
							}
						}
					],
					"request": {
						"auth": {
							"type": "noauth"
						},
						"method": "GET",
						"header": [
							{
								"key": "Content-Type",
								"value": "application/json"
							},
							{
								"key": "Access-Token",
								"value": "{{token}}"
							}
						],
						"url": {
							"raw": "{{host}}/security/user/decodetoken",
							"host": [
								"{{host}}"
							],
							"path": [
								"security",
								"user",
								"decodetoken"
							]
						}
					},
					"response": []
				},
				{
					"name": "User",
					"event": [
						{
							"listen": "test",
							"script": {
								"id": "a55748a9-968d-4b8f-a346-063e9217dcf2",
								"exec": [
									"var _token = pm.response.json().data[\"Access-Token\"];",
									"",
									"pm.environment.set(\"token\", _token);"
								],
								"type": "text/javascript"
							}
						}
					],
					"request": {
						"auth": {
							"type": "noauth"
						},
						"method": "POST",
						"header": [
							{
								"key": "Content-Type",
								"value": "application/json"
							},
							{
								"key": "Access-Token",
								"value": "{{token}}"
							}
						],
						"body": {
							"mode": "raw",
							"raw": "{\n        \"active\": true,\n        \"email\": \"paulo.hlsa29@gmail.com\",\n        \"gender\": \"M\",\n        \"login\": \"phlsa\",\n        \"name\": \"Paulo Amorim\",\n        \"phone\": \"81998885555\"\n}"
						},
						"url": {
							"raw": "{{host}}/account/user",
							"host": [
								"{{host}}"
							],
							"path": [
								"account",
								"user"
							]
						}
					},
					"response": []
				},
				{
					"name": "User",
					"event": [
						{
							"listen": "test",
							"script": {
								"id": "52f85288-93ae-433c-8293-1b68d7703327",
								"exec": [
									""
								],
								"type": "text/javascript"
							}
						}
					],
					"request": {
						"auth": {
							"type": "noauth"
						},
						"method": "PUT",
						"header": [
							{
								"key": "Content-Type",
								"value": "application/json"
							},
							{
								"key": "Access-Token",
								"value": "{{token}}"
							}
						],
						"body": {
							"mode": "raw",
							"raw": "{\n        \"birthday\": \"2018-01-01\"\n}"
						},
						"url": {
							"raw": "{{host}}/account/user/2",
							"host": [
								"{{host}}"
							],
							"path": [
								"account",
								"user",
								"2"
							]
						}
					},
					"response": []
				},
				{
					"name": "User Change Pwd",
					"event": [
						{
							"listen": "test",
							"script": {
								"id": "cfd5a441-564e-4f25-9963-16af7a7f627d",
								"exec": [
									""
								],
								"type": "text/javascript"
							}
						}
					],
					"request": {
						"auth": {
							"type": "noauth"
						},
						"method": "PUT",
						"header": [
							{
								"key": "Content-Type",
								"value": "application/json"
							},
							{
								"key": "Access-Token",
								"value": "{{token}}"
							}
						],
						"body": {
							"mode": "raw",
							"raw": "{\n        \"currentPwd\": \"t/485E\",\n        \"newPwd\": \"phlsa\"\n}"
						},
						"url": {
							"raw": "{{host}}/account/user/cpwd/19",
							"host": [
								"{{host}}"
							],
							"path": [
								"account",
								"user",
								"cpwd",
								"19"
							]
						}
					},
					"response": []
				}
			],
			"protocolProfileBehavior": {}
		},
		{
			"name": "Group",
			"item": [
				{
					"name": "Group",
					"event": [
						{
							"listen": "test",
							"script": {
								"id": "a55748a9-968d-4b8f-a346-063e9217dcf2",
								"exec": [
									"var _token = pm.response.json().data[\"Access-Token\"];",
									"",
									"pm.environment.set(\"token\", _token);"
								],
								"type": "text/javascript"
							}
						}
					],
					"request": {
						"auth": {
							"type": "noauth"
						},
						"method": "POST",
						"header": [
							{
								"key": "Content-Type",
								"value": "application/json"
							},
							{
								"key": "Access-Token",
								"value": "{{token}}"
							}
						],
						"body": {
							"mode": "raw",
							"raw": "{\n        \"groupId\": 1,\n        \"userId\": 1\n}"
						},
						"url": {
							"raw": "{{host}}/account/group",
							"host": [
								"{{host}}"
							],
							"path": [
								"account",
								"group"
							]
						}
					},
					"response": []
				},
				{
					"name": "Group Assign Group",
					"event": [
						{
							"listen": "test",
							"script": {
								"id": "a55748a9-968d-4b8f-a346-063e9217dcf2",
								"exec": [
									"var _token = pm.response.json().data[\"Access-Token\"];",
									"",
									"pm.environment.set(\"token\", _token);"
								],
								"type": "text/javascript"
							}
						}
					],
					"request": {
						"auth": {
							"type": "noauth"
						},
						"method": "POST",
						"header": [
							{
								"key": "Content-Type",
								"value": "application/json"
							},
							{
								"key": "Restricted-Header",
								"value": "key-true"
							}
						],
						"body": {
							"mode": "raw",
							"raw": "{\n\t\"domainId\": 1,\n    \"groupId\": 1,\n    \"userId\": 19\n}"
						},
						"url": {
							"raw": "{{host}}/account/group/assigngroup",
							"host": [
								"{{host}}"
							],
							"path": [
								"account",
								"group",
								"assigngroup"
							]
						}
					},
					"response": []
				}
			],
			"protocolProfileBehavior": {}
		},
		{
			"name": "Domain",
			"item": [
				{
					"name": "Domain",
					"request": {
						"method": "POST",
						"header": [
							{
								"key": "Content-Type",
								"value": "application/json"
							},
							{
								"key": "Access-Token",
								"value": "{{token}}"
							}
						],
						"body": {
							"mode": "raw",
							"raw": "{\n\t\"name\": \"Novo Domínio\",\n\t\"active\": true,\n\t\"attrs\": {\n\t\t\"smtp.auth.username\": \"user@email.com\",\n\t\t\"smtp.auth.password\": \"123456\",\n\t\t\"smtp.auth.host\": \"mail.com\",\n\t\t\"smtp.auth.port\": \"277\"\n\t}\n}"
						},
						"url": {
							"raw": "{{host}}/security/domain",
							"host": [
								"{{host}}"
							],
							"path": [
								"security",
								"domain"
							]
						}
					},
					"response": []
				},
				{
					"name": "Domain",
					"request": {
						"method": "PUT",
						"header": [
							{
								"key": "Content-Type",
								"value": "application/json"
							},
							{
								"key": "Access-Token",
								"value": "{{token}}"
							}
						],
						"body": {
							"mode": "raw",
							"raw": "{\n\t\"attrs\": {\n\t\t\"smtp.auth.username\": \"user@email.com\",\n\t\t\"smtp.auth.password\": \"123456\",\n\t\t\"smtp.auth.host\": \"mail.com\",\n\t\t\"smtp.auth.port\": \"277\"\n\t}\n}"
						},
						"url": {
							"raw": "{{host}}/security/domain/1",
							"host": [
								"{{host}}"
							],
							"path": [
								"security",
								"domain",
								"1"
							]
						}
					},
					"response": []
				},
				{
					"name": "Domain",
					"request": {
						"method": "GET",
						"header": [
							{
								"key": "Content-Type",
								"value": "application/json"
							},
							{
								"key": "Access-Token",
								"value": "{{token}}"
							}
						],
						"url": {
							"raw": "{{host}}/security/domain/19",
							"host": [
								"{{host}}"
							],
							"path": [
								"security",
								"domain",
								"19"
							]
						}
					},
					"response": []
				}
			],
			"protocolProfileBehavior": {}
		},
		{
			"name": "Domain Parameters",
			"item": [
				{
					"name": "Domain Parameters",
					"request": {
						"method": "GET",
						"header": [
							{
								"key": "Content-Type",
								"type": "text",
								"value": "application/json"
							},
							{
								"key": "Access-Token",
								"type": "text",
								"value": "{{token}}"
							}
						],
						"url": {
							"raw": "{{host}}/account/domainparameters/1",
							"host": [
								"{{host}}"
							],
							"path": [
								"account",
								"domainparameters",
								"1"
							]
						}
					},
					"response": []
				},
				{
					"name": "Domain Parameters",
					"request": {
						"method": "POST",
						"header": [
							{
								"key": "Content-Type",
								"type": "text",
								"value": "application/json"
							},
							{
								"key": "Access-Token",
								"type": "text",
								"value": "{{token}}"
							}
						],
						"body": {
							"mode": "raw",
							"raw": ""
						},
						"url": {
							"raw": "{{host}}/account/domainparameters",
							"host": [
								"{{host}}"
							],
							"path": [
								"account",
								"domainparameters"
							]
						}
					},
					"response": []
				},
				{
					"name": "Domain Parameters",
					"request": {
						"method": "PUT",
						"header": [
							{
								"key": "Content-Type",
								"type": "text",
								"value": "application/json"
							},
							{
								"key": "Access-Token",
								"type": "text",
								"value": "{{token}}"
							}
						],
						"body": {
							"mode": "raw",
							"raw": ""
						},
						"url": {
							"raw": "{{host}}/account/domainparameters/1",
							"host": [
								"{{host}}"
							],
							"path": [
								"account",
								"domainparameters",
								"1"
							]
						}
					},
					"response": []
				},
				{
					"name": "Domain Parameters List",
					"protocolProfileBehavior": {
						"disableBodyPruning": true
					},
					"request": {
						"method": "GET",
						"header": [
							{
								"key": "Content-Type",
								"type": "text",
								"value": "application/json"
							},
							{
								"key": "Access-Token",
								"type": "text",
								"value": "{{token}}"
							}
						],
						"body": {
							"mode": "raw",
							"raw": ""
						},
						"url": {
							"raw": "{{host}}/account/domainparameters/list?filter={\"id\": {\"$eq\": 2}}",
							"host": [
								"{{host}}"
							],
							"path": [
								"account",
								"domainparameters",
								"list"
							],
							"query": [
								{
									"key": "filter",
									"value": "{\"id\": {\"$eq\": 2}}"
								}
							]
						}
					},
					"response": []
				},
				{
					"name": "Domain Parameters",
					"request": {
						"method": "DELETE",
						"header": [
							{
								"key": "Content-Type",
								"type": "text",
								"value": "application/json"
							},
							{
								"key": "Access-Token",
								"type": "text",
								"value": "{{token}}"
							}
						],
						"body": {
							"mode": "raw",
							"raw": ""
						},
						"url": {
							"raw": "{{host}}/account/domainparameters/1",
							"host": [
								"{{host}}"
							],
							"path": [
								"account",
								"domainparameters",
								"1"
							]
						}
					},
					"response": []
				}
			],
			"protocolProfileBehavior": {}
		}
	],
	"protocolProfileBehavior": {}
}